[
    {
        "tid": 12,
        "uuid": "abff678d-4e12-4bdb-a370-d35ac0bd5d44",
        "revision_id": 12,
        "langcode": "en",
        "vid": "tags",
        "revision_created": 1623674334,
        "revision_user": null,
        "revision_log_message": null,
        "status": "1",
        "name": "Jake Sisko",
        "description": [
            {
                "value": "Portrayed by Cirroc Lofton",
                "format": "filtered_html"
            }
        ],
        "weight": 0,
        "parent": 0,
        "changed": 1623674334,
        "default_langcode": "1",
        "revision_default": "1",
        "revision_translation_affected": "1",
        "content_translation_source": "und",
        "content_translation_outdated": "0",
        "content_translation_uid": 1,
        "content_translation_created": 1623674334
    }
]
